INDEX VERSION 1.127+C:\Users\probook4420s\WorkspaceEJB3\.metadata\.plugins\org.eclipse.jdt.core
2812255979.index
3460584013.index
3062385808.index
3438510298.index
3569944337.index
1340503685.index
2821556732.index
1556750652.index
428084915.index
2259335919.index
3299312872.index
648169306.index
1965906963.index
1926105573.index
1446121313.index
507803542.index
